<?xml version="1.0" encoding="UTF-8" standalone="no"?>
<!-- Created with Inkscape (http://www.inkscape.org/) -->

<svg
   xmlns:dc="http://purl.org/dc/elements/1.1/"
   xmlns:cc="http://creativecommons.org/ns#"
   xmlns:rdf="http://www.w3.org/1999/02/22-rdf-syntax-ns#"
   xmlns:svg="http://www.w3.org/2000/svg"
   xmlns="http://www.w3.org/2000/svg"
   xmlns:sodipodi="http://sodipodi.sourceforge.net/DTD/sodipodi-0.dtd"
   xmlns:inkscape="http://www.inkscape.org/namespaces/inkscape"
   width="297mm"
   height="162mm"
   viewBox="0 0 297 162"
   version="1.1"
   id="svg8"
   inkscape:version="0.92.4 5da689c313, 2019-01-14"
   sodipodi:docname="neurodiversity_pride_flag.svg">
  <defs
     id="defs2" />
  <sodipodi:namedview
     id="base"
     pagecolor="#ffffff"
     bordercolor="#666666"
     borderopacity="1.0"
     inkscape:pageopacity="0.0"
     inkscape:pageshadow="2"
     inkscape:zoom="0.9899495"
     inkscape:cx="615.28343"
     inkscape:cy="316.8439"
     inkscape:document-units="mm"
     inkscape:current-layer="layer1"
     showgrid="false"
     inkscape:snap-global="true"
     showguides="false"
     inkscape:window-width="2560"
     inkscape:window-height="1389"
     inkscape:window-x="903"
     inkscape:window-y="27"
     inkscape:window-maximized="1"
     height="209mm" />
  <metadata
     id="metadata5">
    <rdf:RDF>
      <cc:Work
         rdf:about="">
        <dc:format>image/svg+xml</dc:format>
        <dc:type
           rdf:resource="http://purl.org/dc/dcmitype/StillImage" />
        <dc:title></dc:title>
      </cc:Work>
    </rdf:RDF>
  </metadata>
  <g
     inkscape:label="Layer 1"
     inkscape:groupmode="layer"
     id="layer1"
     transform="translate(0,-135)">
    <path
       style="fill:#13d5de;fill-opacity:1;stroke:none;stroke-width:1.99999964;stroke-linecap:butt;stroke-linejoin:miter;stroke-miterlimit:4;stroke-dasharray:none;stroke-opacity:1"
       d="m 101.06021,175.08861 c -8.473328,-0.0514 -16.831599,1.06126 -23.73542,3.48482 -6.899163,2.42195 -12.029486,5.2199 -15.721311,7.69648 12.718618,-6.32648 28.594252,-5.295 38.903191,0.28272 10.74596,5.81423 20.98635,15.12716 26.6368,20.75617 l 13.98443,-13.76485 c -4.30684,-4.09456 -10.66714,-9.73206 -16.49607,-14.01726 -0.67322,-0.4949 -1.57638,-1.16922 -2.51166,-1.86102 -6.55316,-1.64017 -13.8454,-2.53325 -21.05996,-2.57706 z m 70.64518,51.98733 -13.67566,13.45938 c 0.64921,0.5904 1.34722,1.21488 2.08707,1.86751 5.84237,2.98258 15.86451,7.371 28.79449,10.19663 8.17002,1.78544 18.81085,0.82329 27.03782,-0.47339 -6.2432,-0.37165 -12.15749,-1.97542 -16.89523,-4.53881 -10.61949,-5.74577 -21.32719,-14.76928 -27.34849,-20.51132 z"
       id="path865"
       inkscape:connector-curvature="0" />
    <path
       style="fill:#0070ff;fill-opacity:1;stroke:none;stroke-width:1.99999964;stroke-linecap:butt;stroke-linejoin:miter;stroke-miterlimit:4;stroke-dasharray:none;stroke-opacity:1"
       d="m 75.901139,158.79885 c -4.047627,0.0303 -10.336063,0.5374 -14.338019,1.65954 -9.242769,2.59165 -17.143537,6.55562 -23.468067,12.01757 -3.344471,6.48805 -5.120314,18.16326 -2.365161,33.99672 2.08152,11.96217 6.712635,17.23648 9.28781,19.323 -3.057545,-8.13239 -2.978609,-17.32946 1.720879,-25.58202 3.671518,-6.4474 8.921767,-10.99667 14.857106,-13.94901 3.691825,-2.47658 8.822152,-5.27453 15.721323,-7.69648 12.785944,-4.48848 30.55363,-4.47329 44.8029,-0.90236 -8.34313,-6.17148 -26.557412,-19.01856 -46.218771,-18.86696 z"
       id="path878"
       inkscape:connector-curvature="0"
       sodipodi:nodetypes="cccscccccc" />
    <path
       style="fill:#9100ff;fill-opacity:1;stroke:none;stroke-width:1.99999964;stroke-linecap:butt;stroke-linejoin:miter;stroke-miterlimit:4;stroke-dasharray:none;stroke-opacity:1"
       d="m 38.106346,172.4662 c -11.208462,9.67374 -17.449437,24.06536 -17.298151,43.97345 0.07278,9.57617 2.390298,18.80267 6.350659,26.91224 20.50294,15.49849 45.448008,7.94165 52.876898,4.77064 -2.063288,0.23808 -4.161974,0.32069 -6.301703,0.2199 -13.171731,-1.13026 -24.266396,-10.71092 -28.716347,-22.54675 -2.57519,-2.08652 -7.206295,-7.36083 -9.287815,-19.323 -2.761557,-15.87028 -0.970316,-27.53516 2.376459,-34.00648 z"
       id="path885"
       inkscape:connector-curvature="0"
       sodipodi:nodetypes="csccccsc" />
    <path
       style="fill:#e40ff0;fill-opacity:1;stroke:none;stroke-width:1.99999964;stroke-linecap:butt;stroke-linejoin:miter;stroke-miterlimit:4;stroke-dasharray:none;stroke-opacity:1"
       d="m 135.80125,208.03363 c -17.141,18.1171 -34.51475,37.63623 -55.765498,40.0889 -7.427778,3.17099 -32.37323,10.72889 -52.876897,-4.76953 7.455762,15.26615 22.959277,26.56668 38.104523,28.74292 7.044614,1.01228 14.918002,1.27537 23.28072,0.30441 32.068322,-13.73138 29.121272,-40.12186 47.257152,-64.3667 z"
       id="path901"
       inkscape:connector-curvature="0"
       sodipodi:nodetypes="cccccc" />
    <path
       style="fill:#f73508;fill-opacity:1;stroke:none;stroke-width:1.99999964;stroke-linecap:butt;stroke-linejoin:miter;stroke-miterlimit:4;stroke-dasharray:none;stroke-opacity:1"
       d="m 204.31417,160.31647 c -15.49497,3.26456 -32.68744,12.65417 -54.5624,33.67064 -4.68108,4.33199 -9.30782,9.13958 -13.95052,14.04652 -18.14594,24.24787 -15.1947,50.64378 -47.2675,64.37753 19.16705,-2.22564 40.91646,-10.96434 61.23593,-32.24618 6.49119,-6.41817 13.20152,-13.79703 20.14869,-21.0118 5.25743,-10.07621 5.16431,-21.77986 10.49562,-34.43543 6.70089,-15.90663 18.54107,-22.25337 23.90018,-24.40128 z"
       id="path910"
       inkscape:connector-curvature="0" />
    <path
       style="fill:#f3ef0c;fill-opacity:1;stroke:none;stroke-width:1.99999964;stroke-linecap:butt;stroke-linejoin:miter;stroke-miterlimit:4;stroke-dasharray:none;stroke-opacity:1"
       d="m 238.10224,176.62813 c -7.12565,0.14773 -13.8953,2.02399 -19.21468,4.92013 -4.46055,2.42855 -8.36342,5.45136 -11.03182,7.72357 5.81241,-2.45542 11.78789,-3.7692 17.94078,-3.47941 19.01337,1.63153 33.69741,20.86965 30.31475,39.08365 0.73393,4.00334 1.13993,10.58284 -0.12998,21.00097 -1.21348,9.95451 -6.16738,19.31329 -12.98819,26.15397 22.43034,-8.39143 34.76016,-28.17624 35.07023,-50.9604 0.10571,-7.76025 -0.92909,-14.94263 -2.85435,-21.45809 -0.22036,-0.44205 -0.44589,-0.87381 -0.67378,-1.30207 -0.18153,-0.33965 -0.36583,-0.67479 -0.55247,-1.00525 -0.0141,-0.0268 -0.0295,-0.0545 -0.0444,-0.0814 -0.005,-0.008 -0.0109,-0.0168 -0.0141,-0.026 -8.7472,-15.39919 -22.87257,-20.83835 -35.8209,-20.56985 z"
       id="path939"
       inkscape:connector-curvature="0" />
    <path
       style="fill:#23e31c;fill-opacity:1;stroke:none;stroke-width:1.99999964;stroke-linecap:butt;stroke-linejoin:miter;stroke-miterlimit:4;stroke-dasharray:none;stroke-opacity:1"
       d="m 256.11161,224.87602 c -0.57086,3.07377 -1.65323,6.11932 -3.31936,9.04515 -7.92225,13.91193 -23.17982,19.0167 -36.85944,18.204 -8.22772,1.29683 -18.87155,2.25921 -27.04346,0.47339 -12.93057,-2.82576 -22.95318,-7.21405 -28.79543,-10.19665 4.46342,3.93725 10.3487,8.81152 14.8138,12.21148 7.83619,5.96695 37.44737,26.24474 63.05997,19.06305 1.72909,-0.48484 3.4013,-1.03795 5.02518,-1.64548 6.82075,-6.84068 11.77443,-16.19943 12.98787,-26.15398 1.26998,-10.41811 0.86479,-16.99759 0.13077,-21.00096 z"
       id="path947"
       inkscape:connector-curvature="0"
       sodipodi:nodetypes="cscscsccccc" />
    <path
       style="fill:#ffa100;fill-opacity:1;stroke:none;stroke-width:1.99999964;stroke-linecap:butt;stroke-linejoin:miter;stroke-miterlimit:4;stroke-dasharray:none;stroke-opacity:1"
       d="m 217.73942,158.88335 c -4.37734,0.0332 -8.82675,0.46429 -13.42525,1.43312 -5.35908,2.14791 -17.19929,8.49465 -23.90015,24.4013 -5.33122,12.65526 -5.23826,24.35933 -10.49561,34.43542 11.87394,-12.33136 24.45483,-24.17254 37.92129,-29.86736 2.66877,-2.27371 6.57896,-5.30435 11.04822,-7.73765 15.47456,-8.42509 43.21631,-8.21956 56.32145,18.06427 -6.68757,-22.62339 -26.36235,-37.18119 -44.36666,-39.76827 -4.34826,-0.6248 -8.68934,-0.99415 -13.10329,-0.96083 z"
       id="path931"
       inkscape:connector-curvature="0"
       sodipodi:nodetypes="ccccccccc" />
  </g>
</svg>
